{
	"username" : "m.dix@yoursl.de.ccdigital3",
	"password" : "mdix!salesforce!A09",
	"securityToken" : "jvGdMM0R0PBzzn3itPpQ2A8p",
	"loginHost" : "https://eu6.salesforce.com",
	"clientId" : "3MVG9sLbBxQYwWqt0ENjKEiLXP.zL7VfFAi9j8RzHuUDP8nOtL2UPbUkkH6Q2GjmURBuABxGbwg==",
	"clientSecret" : "8424292557533442699"
}