{
	"username" : "f.bangsow@yoursl.de.ccdigital3.rstagegh2",
	"password" : "Regen36Wald",
	"securityToken" : "u0q8QHgx9Li5TwEVatf02XMxF",
	"loginHost" : "https://cs83.salesforce.com",
	"clientId" : "3MVG9sLbBxQYwWqt0ENjKEiLXP.zL7VfFAi9j8RzHuUDP8nOtL2UPbUkkH6Q2GjmURBuABxGbwg==",
	"clientSecret" : "8424292557533442699"
}